ot\model\User.class
ot\configuration\DatabaseBeanConfiguration.class
ot\configuration\values\DataSourceProperties.class
ot\dao\RecordsDAO.class
ot\dao\impl\RecordsDAOImpl.class
ot\model\Records.class
ot\configuration\AppConfiguration.class
ot\model\RecordsStatistics.class
ot\service\UserService.class
ot\configuration\BeanConfiguration.class
ot\controller\RecordsController.class
ot\dao\DAO.class
ot\model\Record.class
ot\service\impl\UserServiceImp.class
ot\model\RecordInfo.class
ot\service\RecordsService.class
ot\configuration\AppInitializer.class
ot\configuration\values\HibernateProperties.class
ot\dao\impl\UserDAOImpl.class
ot\dao\UserDAO.class
ot\service\impl\RecordsServiceImpl.class
ot\controller\AppController.class
